module property-budget-calculator

go 1.22

require (
	github.com/gorilla/mux v1.8.1
	github.com/joho/godotenv v1.5.1
	github.com/stretchr/testify v1.8.1
	gitlab.com/jvazquez85/golang-api-shared v0.0.3
)

require (
	github.com/cespare/xxhash/v2 v2.1.2 // indirect
	github.com/davecgh/go-spew v1.1.1 // indirect
	github.com/dgrijalva/jwt-go v3.2.0+incompatible // indirect
	github.com/dgryski/go-rendezvous v0.0.0-20200823014737-9f7001d12a5f // indirect
	github.com/go-redis/redis/v8 v8.11.5 // indirect
	github.com/golang/mock v1.6.0 // indirect
	github.com/golang/snappy v0.0.4 // indirect
	github.com/jackc/pgpassfile v1.0.0 // indirect
	github.com/jackc/pgservicefile v0.0.0-20221227161230-091c0ba34f0a // indirect
	github.com/jackc/pgx/v5 v5.5.5 // indirect
	github.com/jackc/puddle/v2 v2.2.1 // indirect
	github.com/jinzhu/inflection v1.0.0 // indirect
	github.com/jinzhu/now v1.1.5 // indirect
	github.com/klauspost/compress v1.13.6 // indirect
	github.com/kr/text v0.2.0 // indirect
	github.com/montanaflynn/stats v0.7.1 // indirect
	github.com/pmezard/go-difflib v1.0.0 // indirect
	github.com/rogpeppe/go-internal v1.12.0 // indirect
	github.com/xdg-go/pbkdf2 v1.0.0 // indirect
	github.com/xdg-go/scram v1.1.2 // indirect
	github.com/xdg-go/stringprep v1.0.4 // indirect
	github.com/youmark/pkcs8 v0.0.0-20181117223130-1be2e3e5546d // indirect
	go.mongodb.org/mongo-driver v1.16.0 // indirect
	golang.org/x/crypto v0.22.0 // indirect
	golang.org/x/sync v0.7.0 // indirect
	golang.org/x/text v0.14.0 // indirect
	gopkg.in/yaml.v3 v3.0.1 // indirect
	gorm.io/driver/postgres v1.5.9 // indirect
	gorm.io/gorm v1.25.10 // indirect
)
